<svg width="63" height="64" viewBox="0 0 63 64" fill="none" xmlns="http://www.w3.org/2000/svg">
<path d="M62.4356 14.6018C62.4585 14.6866 62.4702 14.774 62.4704 14.8619V28.5157C62.4704 28.691 62.4242 28.8631 62.3363 29.0148C62.2485 29.1664 62.1222 29.2922 61.9701 29.3794L50.5102 35.9773V49.055C50.5102 49.4109 50.3211 49.7394 50.0125 49.9186L26.0909 63.6894C26.0361 63.7205 25.9764 63.7405 25.9166 63.7616C25.8942 63.7691 25.8731 63.7828 25.8494 63.789C25.6822 63.833 25.5064 63.833 25.3392 63.789C25.3119 63.7815 25.287 63.7666 25.2608 63.7566C25.2061 63.7367 25.1488 63.7193 25.0966 63.6894L1.17995 49.9186C1.02801 49.8313 0.901769 49.7055 0.813942 49.5539C0.726115 49.4023 0.679808 49.2302 0.679688 49.055V8.09346C0.679688 8.00386 0.692132 7.91675 0.714531 7.83213C0.721998 7.80351 0.73942 7.77738 0.749375 7.74875C0.768042 7.69649 0.785464 7.64298 0.812841 7.59444C0.831507 7.56209 0.858885 7.53596 0.881284 7.50609C0.909906 7.46627 0.936039 7.4252 0.969639 7.39036C0.99826 7.36174 1.03559 7.34058 1.06795 7.31569C1.10404 7.28583 1.13639 7.25347 1.17746 7.22983L13.1376 0.344419C13.2891 0.257285 13.4607 0.211426 13.6354 0.211426C13.8101 0.211426 13.9818 0.257285 14.1332 0.344419L26.0921 7.22983H26.0946C26.1344 7.25472 26.168 7.28583 26.2041 7.31445C26.2365 7.33934 26.2725 7.36174 26.3012 7.38911C26.336 7.4252 26.3609 7.46627 26.3908 7.50609C26.4119 7.53596 26.4405 7.56209 26.458 7.59444C26.4866 7.64422 26.5028 7.69649 26.5227 7.74875C26.5326 7.77738 26.5501 7.80351 26.5575 7.83337C26.5804 7.91818 26.5921 8.00562 26.5924 8.09346V33.6776L36.5577 27.9396V14.8606C36.5577 14.7735 36.5702 14.6852 36.5926 14.6018C36.6013 14.5719 36.6175 14.5458 36.6274 14.5172C36.6473 14.4649 36.6647 14.4114 36.6921 14.3629C36.7108 14.3305 36.7382 14.3044 36.7593 14.2745C36.7892 14.2347 36.8141 14.1936 36.8489 14.1588C36.8775 14.1302 36.9136 14.109 36.946 14.0841C36.9833 14.0543 37.0157 14.0219 37.0555 13.9983L49.0169 7.11285C49.1683 7.0256 49.34 6.97967 49.5147 6.97967C49.6894 6.97967 49.8611 7.0256 50.0125 7.11285L61.9714 13.9983C62.0137 14.0231 62.0461 14.0543 62.0834 14.0829C62.1145 14.1078 62.1506 14.1302 62.1792 14.1575C62.2141 14.1936 62.2389 14.2347 62.2688 14.2745C62.2912 14.3044 62.3186 14.3305 62.336 14.3629C62.3646 14.4114 62.3808 14.4649 62.4007 14.5172C62.4119 14.5458 62.4281 14.5719 62.4356 14.6018ZM60.4768 27.9396V16.5854L56.2918 18.9946L50.5102 22.3235V33.6776L60.4781 27.9396H60.4768ZM48.5179 48.4788V37.1172L42.8309 40.3652L26.5911 49.6336V61.1023L48.5179 48.4788ZM2.67326 9.81699V48.4788L24.5975 61.101V49.6349L13.1439 43.1527L13.1401 43.1502L13.1351 43.1477C13.0966 43.1253 13.0642 43.0929 13.0281 43.0656C12.997 43.0407 12.9609 43.0208 12.9335 42.9934L12.9311 42.9896C12.8987 42.9585 12.8763 42.92 12.8489 42.8851C12.824 42.8515 12.7942 42.8229 12.7743 42.7881L12.773 42.7843C12.7506 42.747 12.7369 42.7022 12.7208 42.6599C12.7046 42.6225 12.6834 42.5877 12.6735 42.5479C12.661 42.5006 12.6585 42.4496 12.6536 42.401C12.6486 42.3637 12.6386 42.3264 12.6386 42.289V15.555L6.85826 12.225L2.67326 9.81699ZM13.6366 2.3579L3.67253 8.09346L13.6342 13.829L23.597 8.09222L13.6342 2.3579H13.6366ZM18.8184 38.1526L24.5988 34.825V9.81699L20.4138 12.2262L14.6322 15.555V40.563L18.8184 38.1526ZM49.5147 9.12633L39.5518 14.8619L49.5147 20.5975L59.4763 14.8606L49.5147 9.12633ZM48.5179 22.3235L42.7363 18.9946L38.5513 16.5854V27.9396L44.3317 31.2672L48.5179 33.6776V22.3235ZM25.5931 47.9101L40.2064 39.5675L47.5112 35.3987L37.5558 29.6668L26.0934 36.266L15.6464 42.2803L25.5931 47.9101Z" fill="#FF2D20"/>
</svg>
