<svg width="124" height="64" viewBox="0 0 124 64" fill="none" xmlns="http://www.w3.org/2000/svg">
<g clip-path="url(#clip0_700_2020)">
<path d="M0.581055 58.136H4.6394V42.1156L10.9221 56.0867C11.6632 57.7709 12.6785 58.376 14.6683 58.376C16.658 58.376 17.6337 57.7775 18.3759 56.0867L24.6593 42.1156V58.1421H28.7182V42.1421C28.7182 40.5812 28.0926 39.8263 26.8054 39.4365C23.7227 38.4741 21.6541 39.3066 20.7182 41.3878L14.5528 55.176L8.58106 41.3818C7.68361 39.3006 5.57654 38.4681 2.49384 39.4305C1.20542 39.8209 0.581055 40.5757 0.581055 42.136V58.136ZM32.0914 45.0918H36.1486V53.9219C36.1107 54.4019 36.3026 55.5279 38.5257 55.5622C39.6602 55.5803 47.28 55.5622 47.351 55.5622V45.0479H51.4171C51.4352 45.0479 51.4129 59.3842 51.4135 59.4455C51.4358 62.9812 47.0262 63.7493 44.9943 63.8088H32.1799V61.078L45.0171 61.0774C47.6289 60.8007 47.3209 59.5033 47.3209 59.066V58.0013H38.6953C34.6821 57.9652 32.1269 56.213 32.095 54.198C32.092 54.0175 32.1817 45.1785 32.0926 45.0912L32.0914 45.0918Z" fill="#00618A"/>
<path d="M54.5459 58.1364H66.2139C67.5793 58.1364 68.9068 57.8507 69.9612 57.3556C71.7176 56.5496 72.576 55.4567 72.576 54.0257V51.0603C72.576 49.8892 71.6003 48.7968 69.6888 48.0684C68.674 47.6774 67.4253 47.4699 66.2157 47.4699H61.2984C59.6599 47.4699 58.8791 46.9755 58.6842 45.8831C58.6451 45.7532 58.6451 45.6425 58.6451 45.5186V43.672C58.6451 43.568 58.6451 43.4633 58.6842 43.3334C58.8791 42.5009 59.3086 42.2663 60.7522 42.1304C60.8695 42.1304 61.0253 42.1039 61.1432 42.1039H72.733V39.3989H61.3381C59.699 39.3989 58.8406 39.503 58.0599 39.737C55.6382 40.4919 54.5844 41.6949 54.5844 43.7761V46.1436C54.5844 47.9649 56.6536 49.5258 60.1254 49.8898C60.5164 49.9156 60.9062 49.9415 61.296 49.9415H65.5107C65.6671 49.9415 65.8235 49.9415 65.9402 49.9679C67.2274 50.072 67.7748 50.306 68.1645 50.774C68.4051 51.0146 68.4773 51.2431 68.4773 51.4958V53.8633C68.4773 54.1496 68.2824 54.5141 67.8921 54.8257C67.5408 55.1385 66.9555 55.346 66.1748 55.3983C66.0184 55.3983 65.9017 55.4242 65.7459 55.4242H54.5459V58.1298V58.1364ZM97.8927 53.4278C97.8927 56.2116 99.9606 57.7725 104.136 58.0846C104.526 58.1148 104.916 58.132 105.307 58.1364H115.882V55.4308H105.229C102.848 55.4308 101.95 54.8323 101.95 53.4013V39.4043H97.8921V53.4266L97.8927 53.4278ZM75.1648 53.5685V43.9234C75.1648 41.4729 76.8851 39.9866 80.2872 39.5174C80.6501 39.4656 81.0161 39.4395 81.3826 39.4392H89.086C89.4655 39.4395 89.8446 39.4656 90.2205 39.5174C93.6226 39.9866 95.3429 41.4723 95.3429 43.9234V53.5685C95.3429 55.5565 94.6121 56.6206 92.9278 57.3141L96.9254 60.9231H92.2133L88.979 58.0034L85.723 58.2098H81.3826C80.6397 58.2098 79.8578 58.1051 78.997 57.8705C76.4106 57.1667 75.1648 55.811 75.1648 53.5685ZM79.5456 53.3279C79.5456 53.4585 79.5847 53.5884 79.6238 53.7454C79.8644 54.8666 80.914 55.4922 82.511 55.4922H86.1982L82.8118 52.4347H87.5239L90.4713 55.1012C91.0157 54.8113 91.3736 54.3673 91.4939 53.7977C91.533 53.6678 91.533 53.5373 91.533 53.4067V44.1586C91.533 44.0546 91.533 43.918 91.4939 43.7935C91.2533 42.7511 90.203 42.1514 88.6391 42.1514H82.5182C80.7137 42.1514 79.5468 42.9334 79.5468 44.1586V53.3352L79.5456 53.3279Z" fill="#E48E00"/>
<path d="M119.452 34.9158C116.958 34.8484 115.052 35.08 113.423 35.7669C112.96 35.9624 112.221 35.9672 112.146 36.5477C112.4 36.8142 112.44 37.2123 112.642 37.5402C113.031 38.1699 113.689 39.0138 114.274 39.4554C114.914 39.9384 115.573 40.4557 116.261 40.8749C117.482 41.6196 118.845 42.0448 120.02 42.7901C120.713 43.2292 121.401 43.7826 122.077 44.2794C122.411 44.5248 122.637 44.9062 123.07 45.0596V44.9886C122.841 44.6981 122.783 44.2987 122.573 43.9961L121.651 43.074C120.749 41.871 119.605 40.8262 118.388 39.9522C117.418 39.2556 115.246 38.3149 114.841 37.1853L114.77 37.1143C115.458 37.0361 116.264 36.7877 116.899 36.6181C117.966 36.3323 118.919 36.4057 120.021 36.1218L121.511 35.696V35.412C120.954 34.8406 120.557 34.0845 119.95 33.5678C118.362 32.2145 116.628 30.8641 114.843 29.7363C113.853 29.1107 112.63 28.7053 111.58 28.1754C111.227 27.9973 110.607 27.9047 110.374 27.6075C109.823 26.905 109.523 26.0135 109.098 25.2015C108.208 23.4872 107.333 21.6142 106.544 19.8102C106.006 18.5802 105.654 17.3669 104.984 16.2632C101.763 10.9675 98.2949 7.77114 92.9246 4.63009C91.7818 3.96242 90.4061 3.69776 88.9517 3.3531L86.6106 3.21114C86.1343 3.01265 85.6386 2.42919 85.1911 2.14648C83.4119 1.02167 78.8482 -1.42224 77.5304 1.78558C76.6985 3.81445 78.7737 5.794 79.5165 6.82257C80.0374 7.54437 80.7051 8.35219 81.0768 9.16362C81.3216 9.69656 81.3643 10.2313 81.5737 10.7955C82.0891 12.179 82.5379 13.6966 83.2049 14.9808C83.5418 15.6304 83.9135 16.3149 84.34 16.896C84.6016 17.2526 85.0497 17.4096 85.1201 17.9606C84.6822 18.5742 84.657 19.5245 84.4104 20.3017C83.3018 23.7976 83.7198 28.1423 85.3325 30.7299C85.8275 31.5239 86.9926 33.2274 88.5956 32.5742C89.9971 32.0027 89.6783 30.2343 90.0855 28.6728C90.1758 28.3179 90.1204 28.0593 90.2985 27.8217V27.8926L91.5755 30.446C92.5198 31.9678 94.198 33.5588 95.6188 34.6325C96.3556 35.1889 96.9421 36.1513 97.8888 36.4767V36.4057H97.8179C97.6332 36.117 97.3445 35.9985 97.1081 35.7681C96.5529 35.2238 95.9352 34.5471 95.4762 33.9239C94.183 32.1687 93.0413 30.2487 92.0007 28.2487C91.5039 27.2942 91.0714 26.2409 90.6534 25.2695C90.4922 24.8948 90.494 24.3287 90.1571 24.1345C89.6982 24.8466 89.0221 25.4217 88.6672 26.2626C88.0994 27.6063 88.026 29.2448 87.8161 30.9447C87.6916 30.9892 87.7469 30.9585 87.6741 31.0157C86.6864 30.7775 86.3388 29.7603 85.9719 28.8875C85.0431 26.68 84.8711 23.1275 85.6879 20.588C85.8985 19.9311 86.8549 17.8608 86.4681 17.2539C86.2834 16.6481 85.6741 16.2914 85.3331 15.8343C84.912 15.2629 84.4898 14.5086 84.198 13.8481C83.4377 12.1278 83.0828 10.197 82.2828 8.45686C81.9003 7.62558 81.2543 6.78468 80.7225 6.05084C80.1343 5.2328 79.4756 4.62889 79.0203 3.64483C78.8579 3.29295 78.6377 2.73054 78.8783 2.36783C78.9013 2.26362 78.9536 2.16816 79.0291 2.0927C79.1045 2.01724 79.2 1.96494 79.3042 1.94197C79.7156 1.62498 80.8621 2.04723 81.2903 2.22588C82.4272 2.69866 83.3776 3.14859 84.3412 3.78678C84.8043 4.08753 85.2717 4.68663 85.8305 4.85144H86.4681C87.4666 5.08122 88.5854 4.92362 89.5177 5.20633C91.167 5.70738 92.6443 6.48753 93.9869 7.33445C98.0759 9.9161 101.418 13.5913 103.705 17.9811C104.074 18.6866 104.232 19.3609 104.557 20.1092C105.21 21.6129 106.034 23.1726 106.685 24.6487C107.334 26.1224 107.966 27.6081 108.884 28.834C109.366 29.4776 111.23 29.8241 112.076 30.1814C112.67 30.4322 113.642 30.6938 114.204 31.0325C115.278 31.6803 116.318 32.452 117.326 33.1618C117.829 33.5167 119.377 34.2945 119.454 34.9351L119.452 34.9158Z" fill="#00618A"/>
<path fill-rule="evenodd" clip-rule="evenodd" d="M87.7448 7.8889C87.2245 7.87927 86.8569 7.94544 86.4678 8.03085V8.10183H86.5387C86.7866 8.61191 87.2245 8.93973 87.5312 9.37882L88.241 10.8681L88.312 10.7972C88.7511 10.4874 88.9526 9.99236 88.9496 9.23627C88.7733 9.051 88.7475 8.81882 88.5947 8.59747C88.392 8.30273 87.9932 8.13551 87.7436 7.8877L87.7448 7.8889Z" fill="#00618A"/>
<path fill-rule="evenodd" clip-rule="evenodd" d="M117.787 55.3535C117.787 57.1399 119.199 58.3441 120.778 58.3441C122.357 58.3441 123.768 57.1399 123.768 55.3535C123.768 53.567 122.357 52.3628 120.778 52.3628C119.199 52.3628 117.787 53.567 117.787 55.3535ZM123.098 55.3535C123.098 56.7093 122.062 57.7222 120.777 57.7222C119.477 57.7222 118.455 56.7093 118.455 55.3535C118.455 53.9977 119.476 52.9847 120.777 52.9847C122.061 52.9847 123.098 53.9977 123.098 55.3535ZM121.583 57.0605H122.252L121.272 55.5616C121.798 55.5057 122.196 55.25 122.196 54.6281C122.196 53.9339 121.757 53.6476 120.913 53.6476H119.58V57.0611H120.155V55.5857H120.689L121.582 57.0611L121.583 57.0605ZM120.155 55.1056V54.1252H120.816C121.159 54.1252 121.574 54.189 121.574 54.5884C121.574 55.0666 121.199 55.1069 120.768 55.1069H120.155V55.1056Z" fill="#E48E00"/>
</g>
<defs>
<clipPath id="clip0_700_2020">
<rect width="123.188" height="64" fill="white" transform="translate(0.581055)"/>
</clipPath>
</defs>
</svg>
